…
* GitHub: <https://github.com/JulioCollazos64/bcRP>
* Email: <mailto:amarullazo626@gmail.com>
* GitHub mirror: <https://github.com/cran/bcRP>

Run `revdepcheck::cloud_details(, "bcRP")` for more info

## Newly broken

*   checking examples ... ERROR
     ```
     ...
     > # Will get you the most recent data for these codes
     > # as you have not provided the `from` and `to` arguments.
     > get_bcrp_data(codes = codes)
     # A tibble: 92 × 4
        name     values            series_name                                  code 
        <chr>    <chr>             <chr>                                        <chr>
      1 Dic.2023 -10753.996433     Cuentas monetarias de las sociedades creado… PN00…
      2 Ene.2024 -7372.69594999999 Cuentas monetarias de las sociedades creado… PN00…
      3 Feb.2024 -4352.91922600001 Cuentas monetarias de las sociedades creado… PN00…
      4 Mar.2024 -6059.647797      Cuentas monetarias de las sociedades creado… PN00…
      5 Abr.2024 -7011.29944       Cuentas monetarias de las sociedades creado… PN00…
      6 May.2024 -5719.920519      Cuentas monetarias de las sociedades creado… PN00…
      7 Jun.2024 -4412.965822      Cuentas monetarias de las sociedades creado… PN00…
      8 Jul.2024 3762.929587       Cuentas monetarias de las sociedades creado… PN00…
      9 Ago.2024 3643.75504        Cuentas monetarias de las sociedades creado… PN00…
     10 Sep.2024 7335.179755       Cuentas monetarias de las sociedades creado… PN00…
     # ℹ 82 more rows
…
